Introduction to grwat R package
…
Interannual change variables

To get the detailed description of available variables you can invoke get_parameters():

gr_help_vars()
#> # A tibble: 57 x 19
#>       ID Position Width Source Name   Units Unitsen Readtype Type   Test Desc   
#>    <dbl>    <dbl> <dbl>  <dbl> <chr>  <chr> <chr>   <chr>    <chr> <dbl> <chr>  
#>  1     1        1     7      1 year_ <NA>  <NA>    integer  inte     0  
#>  2     2        8    10      1 Year1     Year    integer  inte     0 , 
#>  3     3       18    10      1 Year2     Year    integer  inte     0 , 
#>  4     4       28    15      1 dates   Date    Date     Date      1  
#>  5     5       43    15      1 datep   Date    Date     Date      1  
#>  6    57        0     0      0 PolPr   Days    integer  inte     1 
#>  7     6       58    10      1 Qy     ^3/ m^3/s   double   doub     1 
#>  8     7       68    10      1 Qmax   ^3/ m^3/s   double   doub     1 
#>  9     8       78    15      1 datem   Date    Date     Date      1  
#> 10     9       93    10      1 Qygr   ^3/ m^3/s   double   doub     1 
#> #  with 47 more rows, and 8 more variables: Descen <chr>, Group <chr>,
#> #   Winter <dbl>, Chart <chr>, Color <chr>, Order <dbl>, Range <chr>,
#> #   Problems <chr>
…
