Introduction to grwat R package • grwat
…
Interannual change variables

To get the detailed description of available variables you can invoke get_parameters():

gr_help_vars()
#> # A tibble: 57 x 19
#>       ID Position Width Source Name   Units Unitsen Readtype Type   Test Desc   
#>    <dbl>    <dbl> <dbl>  <dbl> <chr>  <chr> <chr>   <chr>    <chr> <dbl> <chr>  
#>  1     1        1     7      1 year_… <NA>  <NA>    integer  inte…     0 Номер …
#>  2     2        8    10      1 Year1  Год   Year    integer  inte…     0 Год, к…
#>  3     3       18    10      1 Year2  Год   Year    integer  inte…     0 Год, к…
#>  4     4       28    15      1 dates… Дата  Date    Date     Date      1 Дата н…
#>  5     5       43    15      1 datep… Дата  Date    Date     Date      1 Дата о…
#>  6    57        0     0      0 PolPr… Дней  Days    integer  inte…     1 Продол…
#>  7     6       58    10      1 Qy     м^3/с m^3/s   double   doub…     1 Средни…
#>  8     7       68    10      1 Qmax   м^3/с m^3/s   double   doub…     1 Максим…
#>  9     8       78    15      1 datem… Дата  Date    Date     Date      1 Дата м…
#> 10     9       93    10      1 Qygr   м^3/с m^3/s   double   doub…     1 Средни…
#> # … with 47 more rows, and 8 more variables: Descen <chr>, Group <chr>,
#> #   Winter <dbl>, Chart <chr>, Color <chr>, Order <dbl>, Range <chr>,
#> #   Problems <chr>
…
