Scale space hydrograph analysis • grwat
…
tab = read_separation('/Volumes/Work/_grwat/2018/in/6_Terek/Baksan/AllGrWat.txt')
(sst = ss_transform(tab, year = 2016, sigma = 365))
#> The viewpoint seems to be close to the start of the chromosome, please check if the data is correct
#> 4C-seq scale space data
#> Type: Scale4C 
#> Viewpoint:  2016 : 1 
#> Number of total fragments:  366 
#> Points of interest:  0 
#> Maximum sigma of fingerprint map:  365 
#> Number of singularities:  34

Second, use grwat::ss_tree() to obtain a scale-space tree as a tibble object suited for visualization and analysis:

(tree = ss_tree(sst))
#> # A tibble: 204 x 8
#>       id position idrect   type           type_position          day  smin  smax
#>  * <int> <chr>    <chr>    <chr>          <chr>                <dbl> <dbl> <dbl>
#>  1     1 left     1_left   tracking prob… tracking problem_le…   140     0     1
#>  2     1 left     1_left   tracking prob… tracking problem_le…   144     0     1
#>  3     1 center   1_center tracking prob… tracking problem_ce…   144     0     1
#>  4     1 center   1_center tracking prob… tracking problem_ce…   145     0     1
#>  5     1 right    1_right  tracking prob… tracking problem_ri…   145     0     1
#>  6     1 right    1_right  tracking prob… tracking problem_ri…   147     0     1
#>  7     2 left     2_left   tracking prob… tracking problem_le…   191     0     1
#>  8     2 left     2_left   tracking prob… tracking problem_le…   194     0     1
#>  9     2 center   2_center tracking prob… tracking problem_ce…   194     0     1
#> 10     2 center   2_center tracking prob… tracking problem_ce…   195     0     1
#> # … with 194 more rows
…
