Advanced hydrograph separation — gr_separate • grwat
…
Typea combination of discharge types

Yeara water-resources year

Temptemperature

Precprecipitation

    Examples

library(grwat)
print(spas) # example Spas-Zagorye data loaded with grwat package

#> # A tibble: 23,742 x 4
#>    Date           Q   Temp  Prec
#>    <date>     <dbl>  <dbl> <dbl>
#>  1 1956-01-01  5.18  -6.46 0.453
#>  2 1956-01-02  5.18 -11.4  0.825
#>  3 1956-01-03  5.44 -10.7  0.26 
#>  4 1956-01-04  5.44  -8.05 0.397
#>  5 1956-01-05  5.44 -11.7  0.102
#>  6 1956-01-06  5.58 -20.1  0.032
#>  7 1956-01-07  5.58 -16.6  0.024
#>  8 1956-01-08  5.36 -15.2  0.042
#>  9 1956-01-09  5.36 -15.9  0.053
#> 10 1956-01-10  5.31 -13.3  0.08 
#> # … with 23,732 more rows

sep = gr_separate(spas, params = gr_get_params(reg = 'Midplain'))
dplyr::filter(sep, Year == 2010) # View water resources year

#> # A tibble: 380 x 12
#>    Date           Q Qbase Quick Qseas Qrain Qthaw   Qpb  Type  Year   Temp  Prec
#>    <date>     <dbl> <dbl> <dbl> <dbl> <dbl> <dbl> <dbl> <int> <int>  <dbl> <dbl>
#>  1 2010-03-17  10.7  10.7  0     0        0     0     0     0  2010 -10.1  0.153
#>  2 2010-03-18  11.8  11.8  0     0        0     0     0     0  2010  -8.17 0.067
#>  3 2010-03-19  11.5  11.5  0     0        0     0     0     0  2010  -2    5.49 
#>  4 2010-03-20  11.7  11.7  0     0        0     0     0     0  2010   3.72 1.66 
#>  5 2010-03-21  12.4  12.4  0     0        0     0     0     0  2010   3.82 3.83 
#>  6 2010-03-22  20.8  13.3  7.51  7.51     0     0     0     0  2010   2.77 3.26 
#>  7 2010-03-23  31    14.2 16.8  16.8      0     0     0     0  2010  -0.56 0.284
#>  8 2010-03-24  36.4  15.2 21.2  21.2      0     0     0     0  2010   0.29 2.48 
#>  9 2010-03-25  37.2  16.3 20.9  20.9      0     0     0     0  2010  -1.66 0    
#> 10 2010-03-26  35.9  17.5 18.4  18.4      0     0     0     0  2010   1.11 0    
#> # … with 370 more rows
…
